{
  "$type": "Comindware.Platform.Contracts.TemplateInfoModel, Comindware.Platform.Contracts",
  "Name": "Оформление Услуги Процесс",
  "GlobalAlias": {
    "$type": "Comindware.Platform.Contracts.GlobalAlias, Comindware.Platform.Contracts",
    "Type": "ProcessTemplate",
    "Alias": "OformlenieUslugiProtsess"
  },
  "IsDisabled": false,
  "RelatedTemplate": {
    "$type": "System.Nullable`1[[Comindware.Platform.Contracts.GlobalAlias, Comindware.Platform.Contracts]], mscorlib",
    "Type": "RecordTemplate",
    "Alias": "OformlenieUslugi"
  },
  "IsReferenceData": false,
  "IsTransferable": false
}