{
  "$type": "Comindware.Platform.Contracts.DatasetModel, Comindware.Platform.Contracts",
  "GlobalAlias": {
    "$type": "Comindware.Platform.Contracts.GlobalAlias, Comindware.Platform.Contracts",
    "Type": "Dataset",
    "Owner": "Zayavka",
    "Alias": "list46447"
  },
  "IsLazyLoading": false,
  "Name": "Заявки по статусам",
  "Columns": {
    "$type": "System.Collections.Generic.List`1[[Comindware.Platform.Contracts.ColumnConfigurationModel, Comindware.Platform.Contracts]], mscorlib",
    "$values": [
      {
        "$type": "Comindware.Platform.Contracts.ColumnConfigurationModel, Comindware.Platform.Contracts",
        "PropertyPath": {
          "$type": "Comindware.Platform.Contracts.GlobalAlias[], Comindware.Platform.Contracts",
          "$values": [
            {
              "$type": "Comindware.Platform.Contracts.GlobalAlias, Comindware.Platform.Contracts",
              "Type": "Attribute",
              "Alias": "id"
            }
          ]
        },
        "Name": "ID",
        "Layout": {
          "$type": "Comindware.Platform.Contracts.ColumnLayoutModel, Comindware.Platform.Contracts",
          "Flex": 1.0
        },
        "IsHidden": false
      },
      {
        "$type": "Comindware.Platform.Contracts.ColumnConfigurationModel, Comindware.Platform.Contracts",
        "PropertyPath": {
          "$type": "Comindware.Platform.Contracts.GlobalAlias[], Comindware.Platform.Contracts",
          "$values": [
            {
              "$type": "Comindware.Platform.Contracts.GlobalAlias, Comindware.Platform.Contracts",
              "Type": "Attribute",
              "Owner": "Zayavka",
              "Alias": "VidZakaza"
            }
          ]
        },
        "Name": "Вид Заказа",
        "Layout": {
          "$type": "Comindware.Platform.Contracts.ColumnLayoutModel, Comindware.Platform.Contracts",
          "Flex": 1.0
        },
        "IsHidden": false
      },
      {
        "$type": "Comindware.Platform.Contracts.ColumnConfigurationModel, Comindware.Platform.Contracts",
        "PropertyPath": {
          "$type": "Comindware.Platform.Contracts.GlobalAlias[], Comindware.Platform.Contracts",
          "$values": [
            {
              "$type": "Comindware.Platform.Contracts.GlobalAlias, Comindware.Platform.Contracts",
              "Type": "Attribute",
              "Owner": "Zayavka",
              "Alias": "Naimenovanie"
            }
          ]
        },
        "Name": "Наименование",
        "Layout": {
          "$type": "Comindware.Platform.Contracts.ColumnLayoutModel, Comindware.Platform.Contracts",
          "Flex": 1.0
        },
        "IsHidden": false
      },
      {
        "$type": "Comindware.Platform.Contracts.ColumnConfigurationModel, Comindware.Platform.Contracts",
        "PropertyPath": {
          "$type": "Comindware.Platform.Contracts.GlobalAlias[], Comindware.Platform.Contracts",
          "$values": [
            {
              "$type": "Comindware.Platform.Contracts.GlobalAlias, Comindware.Platform.Contracts",
              "Type": "Attribute",
              "Owner": "Zayavka",
              "Alias": "Kommentariy"
            }
          ]
        },
        "Name": "Комментарий",
        "Layout": {
          "$type": "Comindware.Platform.Contracts.ColumnLayoutModel, Comindware.Platform.Contracts",
          "Flex": 1.0
        },
        "IsHidden": true
      },
      {
        "$type": "Comindware.Platform.Contracts.ColumnConfigurationModel, Comindware.Platform.Contracts",
        "PropertyPath": {
          "$type": "Comindware.Platform.Contracts.GlobalAlias[], Comindware.Platform.Contracts",
          "$values": [
            {
              "$type": "Comindware.Platform.Contracts.GlobalAlias, Comindware.Platform.Contracts",
              "Type": "Attribute",
              "Owner": "Zayavka",
              "Alias": "Status"
            }
          ]
        },
        "Name": "Статус",
        "Layout": {
          "$type": "Comindware.Platform.Contracts.ColumnLayoutModel, Comindware.Platform.Contracts",
          "Flex": 1.0
        },
        "IsHidden": false
      },
      {
        "$type": "Comindware.Platform.Contracts.ColumnConfigurationModel, Comindware.Platform.Contracts",
        "PropertyPath": {
          "$type": "Comindware.Platform.Contracts.GlobalAlias[], Comindware.Platform.Contracts",
          "$values": [
            {
              "$type": "Comindware.Platform.Contracts.GlobalAlias, Comindware.Platform.Contracts",
              "Type": "Attribute",
              "Alias": "creationDate"
            }
          ]
        },
        "Name": "Дата создания",
        "Layout": {
          "$type": "Comindware.Platform.Contracts.ColumnLayoutModel, Comindware.Platform.Contracts",
          "Flex": 1.0
        },
        "IsHidden": false
      },
      {
        "$type": "Comindware.Platform.Contracts.ColumnConfigurationModel, Comindware.Platform.Contracts",
        "PropertyPath": {
          "$type": "Comindware.Platform.Contracts.GlobalAlias[], Comindware.Platform.Contracts",
          "$values": [
            {
              "$type": "Comindware.Platform.Contracts.GlobalAlias, Comindware.Platform.Contracts",
              "Type": "Attribute",
              "Alias": "lastWriteDate"
            }
          ]
        },
        "Name": "Дата изменения",
        "Layout": {
          "$type": "Comindware.Platform.Contracts.ColumnLayoutModel, Comindware.Platform.Contracts",
          "Flex": 1.0
        },
        "IsHidden": true
      }
    ]
  },
  "Paging": {
    "$type": "Comindware.Platform.Contracts.PagingConfigurationModel, Comindware.Platform.Contracts",
    "Page": 0,
    "Size": 10
  },
  "Sorting": {
    "$type": "System.Collections.Generic.List`1[[Comindware.Platform.Contracts.SortingConfigurationModel, Comindware.Platform.Contracts]], mscorlib",
    "$values": []
  },
  "ViewType": "General",
  "Grouping": {
    "$type": "System.Collections.Generic.List`1[[Comindware.Platform.Contracts.GroupingConfigurationModel, Comindware.Platform.Contracts]], mscorlib",
    "$values": [
      {
        "$type": "Comindware.Platform.Contracts.GroupingConfigurationModel, Comindware.Platform.Contracts",
        "Level": 1,
        "Name": "Статус",
        "PropertyPath": {
          "$type": "Comindware.Platform.Contracts.GlobalAlias[], Comindware.Platform.Contracts",
          "$values": [
            {
              "$type": "Comindware.Platform.Contracts.GlobalAlias, Comindware.Platform.Contracts",
              "Type": "Attribute",
              "Owner": "Zayavka",
              "Alias": "Status"
            }
          ]
        },
        "Direction": "Asc"
      }
    ]
  }
}