{
  "$type": "Comindware.Platform.Contracts.RoleWorkspaceConfigurationModel, Comindware.Platform.Contracts",
  "GlobalAlias": {
    "$type": "Comindware.Platform.Contracts.GlobalAlias, Comindware.Platform.Contracts",
    "Type": "RoleWorkspace",
    "Alias": "workspace0"
  },
  "Name": "Заказчик",
  "Description": "",
  "Roles": {
    "$type": "Comindware.Platform.Contracts.GlobalAlias[], Comindware.Platform.Contracts",
    "$values": [
      {
        "$type": "Comindware.Platform.Contracts.GlobalAlias, Comindware.Platform.Contracts",
        "Type": "RoleConfiguration",
        "Alias": "Zakazchik"
      }
    ]
  },
  "NavigationItems": {
    "$type": "Comindware.Platform.Contracts.NavigationItemModel[], Comindware.Platform.Contracts",
    "$values": [
      {
        "$type": "Comindware.Platform.Contracts.NavigationItemModel, Comindware.Platform.Contracts",
        "Name": "Рабочий стол",
        "Description": "",
        "Priority": 4,
        "ItemType": "DesktopPage",
        "IconClass": "desktop",
        "Severity": "None"
      },
      {
        "$type": "Comindware.Platform.Contracts.NavigationItemModel, Comindware.Platform.Contracts",
        "Name": "Мои задачи",
        "Description": "",
        "Priority": 3,
        "ItemType": "MyTasks",
        "IconClass": "tasks",
        "Severity": "None"
      },
      {
        "$type": "Comindware.Platform.Contracts.NavigationItemModel, Comindware.Platform.Contracts",
        "Name": "Мои заявки по товарам",
        "Description": "",
        "Container": "Zayavka",
        "Priority": 2,
        "ItemType": "RecordTemplateList",
        "IconClass": "list-alt",
        "Target": "list10002",
        "Severity": "None"
      },
      {
        "$type": "Comindware.Platform.Contracts.NavigationItemModel, Comindware.Platform.Contracts",
        "Name": "Мои заявки по услугам",
        "Description": "",
        "Container": "OformlenieUslugi",
        "Priority": 1,
        "ItemType": "RecordTemplateList",
        "IconClass": "list-alt",
        "Target": "list23184",
        "Severity": "None"
      }
    ]
  },
  "Pages": {
    "$type": "Comindware.Platform.Contracts.Desktop.PageModel[], Comindware.Platform.Contracts",
    "$values": [
      {
        "$type": "Comindware.Platform.Contracts.Desktop.PageModel, Comindware.Platform.Contracts",
        "Name": "Услуги и товары",
        "GlobalAlias": {
          "$type": "Comindware.Platform.Contracts.GlobalAlias, Comindware.Platform.Contracts",
          "Type": "SimplePage",
          "Owner": "workspace0",
          "Alias": "systemPage_workspace.2"
        },
        "Main": true,
        "Root": {
          "$type": "Comindware.Platform.Contracts.Desktop.VerticalLayoutComponentModel, Comindware.Platform.Contracts",
          "Rows": {
            "$type": "System.Collections.Generic.List`1[[Comindware.Platform.Contracts.Desktop.ComponentModel, Comindware.Platform.Contracts]], mscorlib",
            "$values": [
              {
                "$type": "Comindware.Platform.Contracts.Desktop.GroupPanelComponentModel, Comindware.Platform.Contracts",
                "Rows": {
                  "$type": "System.Collections.Generic.List`1[[Comindware.Platform.Contracts.Desktop.ComponentModel, Comindware.Platform.Contracts]], mscorlib",
                  "$values": [
                    {
                      "$type": "Comindware.Platform.Contracts.Desktop.VerticalLayoutComponentModel, Comindware.Platform.Contracts",
                      "Rows": {
                        "$type": "System.Collections.Generic.List`1[[Comindware.Platform.Contracts.Desktop.ComponentModel, Comindware.Platform.Contracts]], mscorlib",
                        "$values": [
                          {
                            "$type": "Comindware.Platform.Contracts.Desktop.FieldComponentModel, Comindware.Platform.Contracts",
                            "Type": "FieldComponent",
                            "FieldType": "Showcase",
                            "TemplateId": {
                              "$type": "Comindware.Platform.Contracts.GlobalAlias, Comindware.Platform.Contracts",
                              "Type": "RecordTemplate",
                              "Alias": "Uslugi"
                            },
                            "Children": {
                              "$type": "System.Collections.Generic.List`1[[Comindware.Platform.Contracts.Desktop.ComponentModel, Comindware.Platform.Contracts]], mscorlib",
                              "$values": [
                                {
                                  "$type": "Comindware.Platform.Contracts.Desktop.FieldComponentModel, Comindware.Platform.Contracts",
                                  "Type": "FieldComponent",
                                  "FieldType": "Image",
                                  "Label": {
                                    "$type": "Comindware.Platform.Contracts.Desktop.Label, Comindware.Platform.Contracts",
                                    "Hidden": false,
                                    "Text": {
                                      "$type": "Comindware.Platform.Contracts.Desktop.LocalizedText, Comindware.Platform.Contracts",
                                      "En": "Picture",
                                      "De": "Picture",
                                      "Ru": "Picture"
                                    },
                                    "Alignment": "Undefined"
                                  },
                                  "TemplateId": {
                                    "$type": "Comindware.Platform.Contracts.GlobalAlias, Comindware.Platform.Contracts",
                                    "Type": "Undefined"
                                  },
                                  "Children": {
                                    "$type": "System.Collections.Generic.List`1[[Comindware.Platform.Contracts.Desktop.ComponentModel, Comindware.Platform.Contracts]], mscorlib",
                                    "$values": []
                                  },
                                  "Name": "Picture",
                                  "AccessType": "Undefined",
                                  "GlobalAlias": {
                                    "$type": "Comindware.Platform.Contracts.GlobalAlias, Comindware.Platform.Contracts",
                                    "Type": "DesktopComponent",
                                    "Owner": "Component_9e1a544b-f5f4-40f8-ad92-58acae9d7539",
                                    "Alias": "Component_19f39d27-ca42-4cf5-9fac-1fce49243db6"
                                  },
                                  "WidgetConfigId": {
                                    "$type": "Comindware.Platform.Contracts.GlobalAlias, Comindware.Platform.Contracts",
                                    "Type": "DesktopWidgetConfig",
                                    "Alias": "WidgetConfig_d29f8927-79eb-45c6-b416-091b4d0c9fd6"
                                  },
                                  "Order": 1
                                },
                                {
                                  "$type": "Comindware.Platform.Contracts.Desktop.FieldComponentModel, Comindware.Platform.Contracts",
                                  "Type": "FieldComponent",
                                  "FieldType": "Text",
                                  "Label": {
                                    "$type": "Comindware.Platform.Contracts.Desktop.Label, Comindware.Platform.Contracts",
                                    "Hidden": false,
                                    "Text": {
                                      "$type": "Comindware.Platform.Contracts.Desktop.LocalizedText, Comindware.Platform.Contracts",
                                      "En": "Наименование",
                                      "De": "Наименование",
                                      "Ru": "Наименование"
                                    },
                                    "Alignment": "Undefined"
                                  },
                                  "TemplateId": {
                                    "$type": "Comindware.Platform.Contracts.GlobalAlias, Comindware.Platform.Contracts",
                                    "Type": "Undefined"
                                  },
                                  "Children": {
                                    "$type": "System.Collections.Generic.List`1[[Comindware.Platform.Contracts.Desktop.ComponentModel, Comindware.Platform.Contracts]], mscorlib",
                                    "$values": []
                                  },
                                  "Name": "Наименование",
                                  "AccessType": "Undefined",
                                  "GlobalAlias": {
                                    "$type": "Comindware.Platform.Contracts.GlobalAlias, Comindware.Platform.Contracts",
                                    "Type": "DesktopComponent",
                                    "Owner": "Component_9e1a544b-f5f4-40f8-ad92-58acae9d7539",
                                    "Alias": "Component_7f88cd09-ae18-4182-969f-a5fedfd4faf0"
                                  },
                                  "WidgetConfigId": {
                                    "$type": "Comindware.Platform.Contracts.GlobalAlias, Comindware.Platform.Contracts",
                                    "Type": "DesktopWidgetConfig",
                                    "Alias": "WidgetConfig_0f8b036c-7308-4114-bea3-087f19133c10"
                                  },
                                  "Order": 2
                                },
                                {
                                  "$type": "Comindware.Platform.Contracts.Desktop.FieldComponentModel, Comindware.Platform.Contracts",
                                  "Type": "FieldComponent",
                                  "FieldType": "Text",
                                  "Label": {
                                    "$type": "Comindware.Platform.Contracts.Desktop.Label, Comindware.Platform.Contracts",
                                    "Hidden": false,
                                    "Text": {
                                      "$type": "Comindware.Platform.Contracts.Desktop.LocalizedText, Comindware.Platform.Contracts",
                                      "En": "Описание",
                                      "De": "Описание",
                                      "Ru": "Описание"
                                    },
                                    "Alignment": "Undefined"
                                  },
                                  "TemplateId": {
                                    "$type": "Comindware.Platform.Contracts.GlobalAlias, Comindware.Platform.Contracts",
                                    "Type": "Undefined"
                                  },
                                  "Children": {
                                    "$type": "System.Collections.Generic.List`1[[Comindware.Platform.Contracts.Desktop.ComponentModel, Comindware.Platform.Contracts]], mscorlib",
                                    "$values": []
                                  },
                                  "Name": "Описание",
                                  "AccessType": "Undefined",
                                  "GlobalAlias": {
                                    "$type": "Comindware.Platform.Contracts.GlobalAlias, Comindware.Platform.Contracts",
                                    "Type": "DesktopComponent",
                                    "Owner": "Component_9e1a544b-f5f4-40f8-ad92-58acae9d7539",
                                    "Alias": "Component_826d1777-f5ca-46b0-8622-60c0884b5b5e"
                                  },
                                  "WidgetConfigId": {
                                    "$type": "Comindware.Platform.Contracts.GlobalAlias, Comindware.Platform.Contracts",
                                    "Type": "DesktopWidgetConfig",
                                    "Alias": "WidgetConfig_605aecef-6418-44b2-92e5-be71cfb1220b"
                                  },
                                  "Order": 3
                                },
                                {
                                  "$type": "Comindware.Platform.Contracts.Desktop.ActionButtonComponentModel, Comindware.Platform.Contracts",
                                  "Type": "ActionButton",
                                  "Label": {
                                    "$type": "Comindware.Platform.Contracts.Desktop.Label, Comindware.Platform.Contracts",
                                    "Hidden": false,
                                    "Text": {
                                      "$type": "Comindware.Platform.Contracts.Desktop.LocalizedText, Comindware.Platform.Contracts",
                                      "En": "Перейти к услуге",
                                      "De": "Перейти к услуге",
                                      "Ru": "Перейти к услуге"
                                    },
                                    "Alignment": "Undefined"
                                  },
                                  "IsLink": false,
                                  "UserCommandId": {
                                    "$type": "Comindware.Platform.Contracts.GlobalAlias, Comindware.Platform.Contracts",
                                    "Type": "UserCommand",
                                    "Owner": "Uslugi",
                                    "Alias": "Pereytikusluge"
                                  },
                                  "Name": "Перейти к услуге",
                                  "AccessType": "Undefined",
                                  "GlobalAlias": {
                                    "$type": "Comindware.Platform.Contracts.GlobalAlias, Comindware.Platform.Contracts",
                                    "Type": "DesktopComponent",
                                    "Owner": "Component_9e1a544b-f5f4-40f8-ad92-58acae9d7539",
                                    "Alias": "Component_a739ddcd-5426-4e68-baba-4c51fbde9601"
                                  },
                                  "WidgetConfigId": {
                                    "$type": "Comindware.Platform.Contracts.GlobalAlias, Comindware.Platform.Contracts",
                                    "Type": "DesktopWidgetConfig",
                                    "Alias": "WidgetConfig_68071ac5-e5a8-4a7e-a91e-8386dc8ecfac"
                                  },
                                  "Order": 4
                                }
                              ]
                            },
                            "Name": "Услуги",
                            "AccessType": "Undefined",
                            "GlobalAlias": {
                              "$type": "Comindware.Platform.Contracts.GlobalAlias, Comindware.Platform.Contracts",
                              "Type": "DesktopComponent",
                              "Owner": "Component_03061d92-d09d-4234-a9bf-72b21c12c7e0",
                              "Alias": "Component_9e1a544b-f5f4-40f8-ad92-58acae9d7539"
                            },
                            "WidgetConfigId": {
                              "$type": "Comindware.Platform.Contracts.GlobalAlias, Comindware.Platform.Contracts",
                              "Type": "DesktopWidgetConfig",
                              "Alias": "Uslugi"
                            },
                            "Order": 1
                          }
                        ]
                      },
                      "Type": "VerticalLayout",
                      "AccessType": "Undefined",
                      "GlobalAlias": {
                        "$type": "Comindware.Platform.Contracts.GlobalAlias, Comindware.Platform.Contracts",
                        "Type": "DesktopComponent",
                        "Owner": "Component_7a863fcf-64a6-4893-b160-3d0a81979736",
                        "Alias": "Component_03061d92-d09d-4234-a9bf-72b21c12c7e0"
                      },
                      "Width": "100",
                      "WidgetConfigId": {
                        "$type": "Comindware.Platform.Contracts.GlobalAlias, Comindware.Platform.Contracts",
                        "Type": "Undefined"
                      },
                      "Order": 1
                    }
                  ]
                },
                "Text": {
                  "$type": "Comindware.Platform.Contracts.Desktop.LocalizedText, Comindware.Platform.Contracts"
                },
                "Type": "GroupPanel",
                "Name": "Услуги",
                "AccessType": "Undefined",
                "GlobalAlias": {
                  "$type": "Comindware.Platform.Contracts.GlobalAlias, Comindware.Platform.Contracts",
                  "Type": "DesktopComponent",
                  "Owner": "Component_267ecc6b-887b-46dc-b0ff-e892f427d3a2",
                  "Alias": "Component_7a863fcf-64a6-4893-b160-3d0a81979736"
                },
                "Width": "100",
                "WidgetConfigId": {
                  "$type": "Comindware.Platform.Contracts.GlobalAlias, Comindware.Platform.Contracts",
                  "Type": "Undefined"
                },
                "Order": 1
              },
              {
                "$type": "Comindware.Platform.Contracts.Desktop.GroupPanelComponentModel, Comindware.Platform.Contracts",
                "Rows": {
                  "$type": "System.Collections.Generic.List`1[[Comindware.Platform.Contracts.Desktop.ComponentModel, Comindware.Platform.Contracts]], mscorlib",
                  "$values": [
                    {
                      "$type": "Comindware.Platform.Contracts.Desktop.VerticalLayoutComponentModel, Comindware.Platform.Contracts",
                      "Rows": {
                        "$type": "System.Collections.Generic.List`1[[Comindware.Platform.Contracts.Desktop.ComponentModel, Comindware.Platform.Contracts]], mscorlib",
                        "$values": [
                          {
                            "$type": "Comindware.Platform.Contracts.Desktop.FieldComponentModel, Comindware.Platform.Contracts",
                            "Type": "FieldComponent",
                            "FieldType": "Showcase",
                            "TemplateId": {
                              "$type": "Comindware.Platform.Contracts.GlobalAlias, Comindware.Platform.Contracts",
                              "Type": "RecordTemplate",
                              "Alias": "Tovar"
                            },
                            "Children": {
                              "$type": "System.Collections.Generic.List`1[[Comindware.Platform.Contracts.Desktop.ComponentModel, Comindware.Platform.Contracts]], mscorlib",
                              "$values": [
                                {
                                  "$type": "Comindware.Platform.Contracts.Desktop.FieldComponentModel, Comindware.Platform.Contracts",
                                  "Type": "FieldComponent",
                                  "FieldType": "Image",
                                  "Label": {
                                    "$type": "Comindware.Platform.Contracts.Desktop.Label, Comindware.Platform.Contracts",
                                    "Hidden": false,
                                    "Text": {
                                      "$type": "Comindware.Platform.Contracts.Desktop.LocalizedText, Comindware.Platform.Contracts",
                                      "En": "Иконка",
                                      "De": "Иконка",
                                      "Ru": "Иконка"
                                    },
                                    "Alignment": "Undefined"
                                  },
                                  "TemplateId": {
                                    "$type": "Comindware.Platform.Contracts.GlobalAlias, Comindware.Platform.Contracts",
                                    "Type": "Undefined"
                                  },
                                  "Children": {
                                    "$type": "System.Collections.Generic.List`1[[Comindware.Platform.Contracts.Desktop.ComponentModel, Comindware.Platform.Contracts]], mscorlib",
                                    "$values": []
                                  },
                                  "Name": "Иконка",
                                  "AccessType": "Undefined",
                                  "GlobalAlias": {
                                    "$type": "Comindware.Platform.Contracts.GlobalAlias, Comindware.Platform.Contracts",
                                    "Type": "DesktopComponent",
                                    "Owner": "Component_22f5246f-1107-4d20-8dd3-a8cfb34c9031",
                                    "Alias": "Component_a7a63c84-6e2c-4c26-8f81-427faa04d121"
                                  },
                                  "WidgetConfigId": {
                                    "$type": "Comindware.Platform.Contracts.GlobalAlias, Comindware.Platform.Contracts",
                                    "Type": "DesktopWidgetConfig",
                                    "Alias": "WidgetConfig_708b208d-82e0-41b0-9d2a-759a3bf03b5d"
                                  },
                                  "Order": 1
                                },
                                {
                                  "$type": "Comindware.Platform.Contracts.Desktop.FieldComponentModel, Comindware.Platform.Contracts",
                                  "Type": "FieldComponent",
                                  "FieldType": "Text",
                                  "Label": {
                                    "$type": "Comindware.Platform.Contracts.Desktop.Label, Comindware.Platform.Contracts",
                                    "Hidden": false,
                                    "Text": {
                                      "$type": "Comindware.Platform.Contracts.Desktop.LocalizedText, Comindware.Platform.Contracts",
                                      "En": "Наименование",
                                      "De": "Наименование",
                                      "Ru": "Наименование"
                                    },
                                    "Alignment": "Undefined"
                                  },
                                  "TemplateId": {
                                    "$type": "Comindware.Platform.Contracts.GlobalAlias, Comindware.Platform.Contracts",
                                    "Type": "Undefined"
                                  },
                                  "Children": {
                                    "$type": "System.Collections.Generic.List`1[[Comindware.Platform.Contracts.Desktop.ComponentModel, Comindware.Platform.Contracts]], mscorlib",
                                    "$values": []
                                  },
                                  "Name": "Наименование",
                                  "AccessType": "Undefined",
                                  "GlobalAlias": {
                                    "$type": "Comindware.Platform.Contracts.GlobalAlias, Comindware.Platform.Contracts",
                                    "Type": "DesktopComponent",
                                    "Owner": "Component_22f5246f-1107-4d20-8dd3-a8cfb34c9031",
                                    "Alias": "Component_09178306-313a-48db-accd-b86f545e6b8f"
                                  },
                                  "WidgetConfigId": {
                                    "$type": "Comindware.Platform.Contracts.GlobalAlias, Comindware.Platform.Contracts",
                                    "Type": "DesktopWidgetConfig",
                                    "Alias": "WidgetConfig_f97f2200-0e65-4639-b0ea-60cc5a26a541"
                                  },
                                  "Order": 2
                                },
                                {
                                  "$type": "Comindware.Platform.Contracts.Desktop.FieldComponentModel, Comindware.Platform.Contracts",
                                  "Type": "FieldComponent",
                                  "FieldType": "Text",
                                  "Label": {
                                    "$type": "Comindware.Platform.Contracts.Desktop.Label, Comindware.Platform.Contracts",
                                    "Hidden": false,
                                    "Text": {
                                      "$type": "Comindware.Platform.Contracts.Desktop.LocalizedText, Comindware.Platform.Contracts",
                                      "En": "Описание",
                                      "De": "Описание",
                                      "Ru": "Описание"
                                    },
                                    "Alignment": "Undefined"
                                  },
                                  "TemplateId": {
                                    "$type": "Comindware.Platform.Contracts.GlobalAlias, Comindware.Platform.Contracts",
                                    "Type": "Undefined"
                                  },
                                  "Children": {
                                    "$type": "System.Collections.Generic.List`1[[Comindware.Platform.Contracts.Desktop.ComponentModel, Comindware.Platform.Contracts]], mscorlib",
                                    "$values": []
                                  },
                                  "Name": "Описание",
                                  "AccessType": "Undefined",
                                  "GlobalAlias": {
                                    "$type": "Comindware.Platform.Contracts.GlobalAlias, Comindware.Platform.Contracts",
                                    "Type": "DesktopComponent",
                                    "Owner": "Component_22f5246f-1107-4d20-8dd3-a8cfb34c9031",
                                    "Alias": "Component_368e4e24-1bba-40b2-b95b-399097516df5"
                                  },
                                  "WidgetConfigId": {
                                    "$type": "Comindware.Platform.Contracts.GlobalAlias, Comindware.Platform.Contracts",
                                    "Type": "DesktopWidgetConfig",
                                    "Alias": "WidgetConfig_c9703fa7-a04c-4902-ab18-b83f41e392a4"
                                  },
                                  "Order": 3
                                },
                                {
                                  "$type": "Comindware.Platform.Contracts.Desktop.ActionButtonComponentModel, Comindware.Platform.Contracts",
                                  "Type": "ActionButton",
                                  "Label": {
                                    "$type": "Comindware.Platform.Contracts.Desktop.Label, Comindware.Platform.Contracts",
                                    "Hidden": false,
                                    "Text": {
                                      "$type": "Comindware.Platform.Contracts.Desktop.LocalizedText, Comindware.Platform.Contracts",
                                      "En": "Добавить в корзину",
                                      "De": "Добавить в корзину",
                                      "Ru": "Добавить в корзину"
                                    },
                                    "Alignment": "Undefined"
                                  },
                                  "IsLink": false,
                                  "UserCommandId": {
                                    "$type": "Comindware.Platform.Contracts.GlobalAlias, Comindware.Platform.Contracts",
                                    "Type": "UserCommand",
                                    "Owner": "Tovar",
                                    "Alias": "Dobavitvkorzinu"
                                  },
                                  "Name": "Добавить в корзину",
                                  "AccessType": "Undefined",
                                  "GlobalAlias": {
                                    "$type": "Comindware.Platform.Contracts.GlobalAlias, Comindware.Platform.Contracts",
                                    "Type": "DesktopComponent",
                                    "Owner": "Component_22f5246f-1107-4d20-8dd3-a8cfb34c9031",
                                    "Alias": "Component_7c61f525-90c3-41bf-85a3-aa6f8617cc1c"
                                  },
                                  "WidgetConfigId": {
                                    "$type": "Comindware.Platform.Contracts.GlobalAlias, Comindware.Platform.Contracts",
                                    "Type": "DesktopWidgetConfig",
                                    "Alias": "WidgetConfig_035759ad-317e-4112-bdd7-2164ba257a8e"
                                  },
                                  "Order": 4
                                }
                              ]
                            },
                            "Name": "Товары",
                            "AccessType": "Undefined",
                            "GlobalAlias": {
                              "$type": "Comindware.Platform.Contracts.GlobalAlias, Comindware.Platform.Contracts",
                              "Type": "DesktopComponent",
                              "Owner": "Component_d7aa37a8-78e9-4327-8a8e-370b990875c0",
                              "Alias": "Component_22f5246f-1107-4d20-8dd3-a8cfb34c9031"
                            },
                            "WidgetConfigId": {
                              "$type": "Comindware.Platform.Contracts.GlobalAlias, Comindware.Platform.Contracts",
                              "Type": "DesktopWidgetConfig",
                              "Alias": "Tovary"
                            },
                            "Order": 1
                          }
                        ]
                      },
                      "Type": "VerticalLayout",
                      "AccessType": "Undefined",
                      "GlobalAlias": {
                        "$type": "Comindware.Platform.Contracts.GlobalAlias, Comindware.Platform.Contracts",
                        "Type": "DesktopComponent",
                        "Owner": "Component_c190e2a8-99bb-47d2-a08c-c7f43347d44f",
                        "Alias": "Component_d7aa37a8-78e9-4327-8a8e-370b990875c0"
                      },
                      "Width": "100",
                      "WidgetConfigId": {
                        "$type": "Comindware.Platform.Contracts.GlobalAlias, Comindware.Platform.Contracts",
                        "Type": "Undefined"
                      },
                      "Order": 1
                    }
                  ]
                },
                "Text": {
                  "$type": "Comindware.Platform.Contracts.Desktop.LocalizedText, Comindware.Platform.Contracts"
                },
                "Type": "GroupPanel",
                "Name": "Товары",
                "AccessType": "Undefined",
                "GlobalAlias": {
                  "$type": "Comindware.Platform.Contracts.GlobalAlias, Comindware.Platform.Contracts",
                  "Type": "DesktopComponent",
                  "Owner": "Component_267ecc6b-887b-46dc-b0ff-e892f427d3a2",
                  "Alias": "Component_c190e2a8-99bb-47d2-a08c-c7f43347d44f"
                },
                "Width": "100",
                "WidgetConfigId": {
                  "$type": "Comindware.Platform.Contracts.GlobalAlias, Comindware.Platform.Contracts",
                  "Type": "Undefined"
                },
                "Order": 2
              }
            ]
          },
          "Type": "VerticalLayout",
          "AccessType": "Undefined",
          "GlobalAlias": {
            "$type": "Comindware.Platform.Contracts.GlobalAlias, Comindware.Platform.Contracts",
            "Type": "DesktopComponent",
            "Owner": "systemPage_workspace.2",
            "Alias": "Component_267ecc6b-887b-46dc-b0ff-e892f427d3a2"
          },
          "WidgetConfigId": {
            "$type": "Comindware.Platform.Contracts.GlobalAlias, Comindware.Platform.Contracts",
            "Type": "Undefined"
          },
          "Order": 1
        }
      }
    ]
  }
}