{
  "$type": "Comindware.Platform.Contracts.Models.Triggers.EventTrigger.TriggerModel, Comindware.Platform.Contracts",
  "GlobalAlias": {
    "$type": "Comindware.Platform.Contracts.GlobalAlias, Comindware.Platform.Contracts",
    "Type": "Trigger",
    "Alias": "Otkaz"
  },
  "Name": "Отказ",
  "ExecutionContext": "BySystem",
  "BehaviourState": "Active",
  "ActionsHead": {
    "$type": "Comindware.Platform.Contracts.Models.Triggers.EventTrigger.OnUserCommand, Comindware.Platform.Contracts",
    "UserCommand": {
      "$type": "System.Nullable`1[[Comindware.Platform.Contracts.GlobalAlias, Comindware.Platform.Contracts]], mscorlib",
      "Type": "UserCommand",
      "Owner": "Vidvnutrenneyzayavki",
      "Alias": "Otkazat"
    },
    "Kind": "OnUserCommand",
    "Uid": "e32c3584-549d-42db-8400-896b826cae68",
    "Name": "Нажата кнопка «Отказать» для записей «Внутреннее заявление»",
    "GlobalAlias": {
      "$type": "Comindware.Platform.Contracts.GlobalAlias, Comindware.Platform.Contracts",
      "Type": "TriggerEvent",
      "Alias": "e32c3584-549d-42db-8400-896b826cae68"
    },
    "Scope": {
      "$type": "System.Nullable`1[[Comindware.Platform.Contracts.GlobalAlias, Comindware.Platform.Contracts]], mscorlib",
      "Type": "RecordTemplate",
      "Alias": "Vidvnutrenneyzayavki"
    },
    "NextAction": {
      "$type": "Comindware.Platform.Contracts.Models.Triggers.EventTrigger.ReferenceObjectChange, Comindware.Platform.Contracts",
      "TargetContainer": {
        "$type": "System.Nullable`1[[Comindware.Platform.Contracts.GlobalAlias, Comindware.Platform.Contracts]], mscorlib",
        "Type": "RecordTemplate",
        "Alias": "Vidvnutrenneyzayavki"
      },
      "ReferenceExpression": "$cmw.taskID",
      "Kind": "ReferenceObjectChange",
      "Uid": "846c3c6f-d893-413b-992c-2166e109c545",
      "Name": "На записи «Внутреннее заявление», возвращаемые выражением",
      "GlobalAlias": {
        "$type": "Comindware.Platform.Contracts.GlobalAlias, Comindware.Platform.Contracts",
        "Type": "TriggerAction",
        "Alias": "846c3c6f-d893-413b-992c-2166e109c545"
      },
      "Scope": {
        "$type": "System.Nullable`1[[Comindware.Platform.Contracts.GlobalAlias, Comindware.Platform.Contracts]], mscorlib",
        "Type": "RecordTemplate",
        "Alias": "Vidvnutrenneyzayavki"
      },
      "SubAction": {
        "$type": "Comindware.Platform.Contracts.Models.Triggers.EventTrigger.PropertySetValueAction, Comindware.Platform.Contracts",
        "Kind": "PropertySetValue",
        "SetValueProperties": {
          "$type": "Comindware.Platform.Contracts.Models.Triggers.EventTrigger.PropertySetValue[], Comindware.Platform.Contracts",
          "$values": [
            {
              "$type": "Comindware.Platform.Contracts.Models.Triggers.EventTrigger.PropertySetValue, Comindware.Platform.Contracts",
              "SetValueKind": "Replace",
              "PropertyPath": {
                "$type": "Comindware.Platform.Contracts.GlobalAlias[], Comindware.Platform.Contracts",
                "$values": [
                  {
                    "$type": "Comindware.Platform.Contracts.GlobalAlias, Comindware.Platform.Contracts",
                    "Type": "Attribute",
                    "Owner": "Vidvnutrenneyzayavki",
                    "Alias": "Otkaz"
                  }
                ]
              },
              "ValueExpression": "true"
            }
          ]
        },
        "Uid": "f5405e84-bbce-4d8b-9bd5-69d38deba9a6",
        "Name": "В записи «Внутреннее заявление»",
        "GlobalAlias": {
          "$type": "Comindware.Platform.Contracts.GlobalAlias, Comindware.Platform.Contracts",
          "Type": "TriggerAction",
          "Alias": "f5405e84-bbce-4d8b-9bd5-69d38deba9a6"
        },
        "Scope": {
          "$type": "System.Nullable`1[[Comindware.Platform.Contracts.GlobalAlias, Comindware.Platform.Contracts]], mscorlib",
          "Type": "RecordTemplate",
          "Alias": "Vidvnutrenneyzayavki"
        }
      }
    }
  }
}