{
  "$type": "Comindware.Platform.Contracts.Models.Triggers.EventTrigger.TriggerModel, Comindware.Platform.Contracts",
  "GlobalAlias": {
    "$type": "Comindware.Platform.Contracts.GlobalAlias, Comindware.Platform.Contracts",
    "Type": "Trigger",
    "Alias": "TokenLeaves_userTask1_Process_Oformleniezayavki_V22_1_0e2f47"
  },
  "Name": "Выход токена из элемента «Оформление заявки на товар» процесса «Оформление заявки»",
  "ExecutionContext": "ByInitiator",
  "Description": "Сценарий при выходе токена из элемента «Оформление заявки на товар» <userTask1>, процесс «Оформление заявки» <Oformleniezayavki>",
  "BehaviourState": "Active",
  "ActionsHead": {
    "$type": "Comindware.Platform.Contracts.Models.Triggers.EventTrigger.OnProcessActivityExit, Comindware.Platform.Contracts",
    "Activity": {
      "$type": "System.Nullable`1[[Comindware.Platform.Contracts.GlobalAlias, Comindware.Platform.Contracts]], mscorlib",
      "Type": "GlobalActivity",
      "Owner": "Oformleniezayavki",
      "Alias": "userTask1"
    },
    "Kind": "OnProcessActivityExit",
    "Uid": "6e69e04b2e9b4c119e70d8cdf4e63b9f",
    "Name": "Токен вышел из элемента «Оформление заявки на товар»",
    "GlobalAlias": {
      "$type": "Comindware.Platform.Contracts.GlobalAlias, Comindware.Platform.Contracts",
      "Type": "TriggerEvent",
      "Alias": "6e69e04b2e9b4c119e70d8cdf4e63b9f"
    },
    "Description": "Токен вышел из элемента «Оформление заявки на товар» <userTask1>, процесс «Оформление заявки» <Oformleniezayavki>",
    "Scope": {
      "$type": "System.Nullable`1[[Comindware.Platform.Contracts.GlobalAlias, Comindware.Platform.Contracts]], mscorlib",
      "Type": "ProcessTemplate",
      "Alias": "Oformleniezayavki"
    },
    "NextAction": {
      "$type": "Comindware.Platform.Contracts.Models.Triggers.EventTrigger.ReferenceObjectChange, Comindware.Platform.Contracts",
      "TargetContainer": {
        "$type": "System.Nullable`1[[Comindware.Platform.Contracts.GlobalAlias, Comindware.Platform.Contracts]], mscorlib",
        "Type": "RecordTemplate",
        "Alias": "Zayavka"
      },
      "ReferenceExpression": "$$BusinessObject",
      "Kind": "ReferenceObjectChange",
      "Uid": "75bcf17a56ea4e18904f28dcda617b3b",
      "GlobalAlias": {
        "$type": "Comindware.Platform.Contracts.GlobalAlias, Comindware.Platform.Contracts",
        "Type": "TriggerAction",
        "Alias": "75bcf17a56ea4e18904f28dcda617b3b"
      },
      "Scope": {
        "$type": "System.Nullable`1[[Comindware.Platform.Contracts.GlobalAlias, Comindware.Platform.Contracts]], mscorlib",
        "Type": "ProcessTemplate",
        "Alias": "Oformleniezayavki"
      },
      "SubAction": {
        "$type": "Comindware.Platform.Contracts.Models.Triggers.EventTrigger.ReferenceObjectChange, Comindware.Platform.Contracts",
        "TargetContainer": {
          "$type": "System.Nullable`1[[Comindware.Platform.Contracts.GlobalAlias, Comindware.Platform.Contracts]], mscorlib",
          "Type": "RecordTemplate",
          "Alias": "Etapyispolneniyazayavki"
        },
        "ReferenceExpression": "from a in db->Etapyispolneniyazayavki where AND(a->Zayavka == $id,a->Naimenovanieetapa == \"Оплата заявки\")  select a->id",
        "Kind": "ReferenceObjectChange",
        "Uid": "204e2ce1cc7f4e02a182abb366fac971",
        "Name": "На записи «Этапы исполнения заявки», возвращаемые выражением",
        "GlobalAlias": {
          "$type": "Comindware.Platform.Contracts.GlobalAlias, Comindware.Platform.Contracts",
          "Type": "TriggerAction",
          "Alias": "204e2ce1cc7f4e02a182abb366fac971"
        },
        "Scope": {
          "$type": "System.Nullable`1[[Comindware.Platform.Contracts.GlobalAlias, Comindware.Platform.Contracts]], mscorlib",
          "Type": "RecordTemplate",
          "Alias": "Zayavka"
        },
        "NextAction": {
          "$type": "Comindware.Platform.Contracts.Models.Triggers.EventTrigger.ReferenceObjectChange, Comindware.Platform.Contracts",
          "TargetContainer": {
            "$type": "System.Nullable`1[[Comindware.Platform.Contracts.GlobalAlias, Comindware.Platform.Contracts]], mscorlib",
            "Type": "RecordTemplate",
            "Alias": "Etapyispolneniyazayavki"
          },
          "ReferenceExpression": "from a in db->Etapyispolneniyazayavki where AND(a->Zayavka == $id,a->Naimenovanieetapa == \"Согласование заявки\")  select a->id",
          "Kind": "ReferenceObjectChange",
          "Uid": "476ac1f6bfdc44039caf9fc499121096",
          "Name": "На записи «Этапы исполнения заявки», возвращаемые выражением",
          "GlobalAlias": {
            "$type": "Comindware.Platform.Contracts.GlobalAlias, Comindware.Platform.Contracts",
            "Type": "TriggerAction",
            "Alias": "476ac1f6bfdc44039caf9fc499121096"
          },
          "Scope": {
            "$type": "System.Nullable`1[[Comindware.Platform.Contracts.GlobalAlias, Comindware.Platform.Contracts]], mscorlib",
            "Type": "RecordTemplate",
            "Alias": "Zayavka"
          },
          "NextAction": {
            "$type": "Comindware.Platform.Contracts.Models.Triggers.EventTrigger.PropertySetValueAction, Comindware.Platform.Contracts",
            "Kind": "PropertySetValue",
            "SetValueProperties": {
              "$type": "Comindware.Platform.Contracts.Models.Triggers.EventTrigger.PropertySetValue[], Comindware.Platform.Contracts",
              "$values": [
                {
                  "$type": "Comindware.Platform.Contracts.Models.Triggers.EventTrigger.PropertySetValue, Comindware.Platform.Contracts",
                  "SetValueKind": "Replace",
                  "PropertyPath": {
                    "$type": "Comindware.Platform.Contracts.GlobalAlias[], Comindware.Platform.Contracts",
                    "$values": [
                      {
                        "$type": "Comindware.Platform.Contracts.GlobalAlias, Comindware.Platform.Contracts",
                        "Type": "Attribute",
                        "Owner": "Zayavka",
                        "Alias": "Status"
                      }
                    ]
                  },
                  "ValueExpression": "ID(835)"
                }
              ]
            },
            "Uid": "3c1b72520bfe4f0e9d6534f876c82b2c",
            "Name": "В записи «Заявка»",
            "GlobalAlias": {
              "$type": "Comindware.Platform.Contracts.GlobalAlias, Comindware.Platform.Contracts",
              "Type": "TriggerAction",
              "Alias": "3c1b72520bfe4f0e9d6534f876c82b2c"
            },
            "Scope": {
              "$type": "System.Nullable`1[[Comindware.Platform.Contracts.GlobalAlias, Comindware.Platform.Contracts]], mscorlib",
              "Type": "RecordTemplate",
              "Alias": "Zayavka"
            }
          },
          "SubAction": {
            "$type": "Comindware.Platform.Contracts.Models.Triggers.EventTrigger.PropertySetValueAction, Comindware.Platform.Contracts",
            "Kind": "PropertySetValue",
            "SetValueProperties": {
              "$type": "Comindware.Platform.Contracts.Models.Triggers.EventTrigger.PropertySetValue[], Comindware.Platform.Contracts",
              "$values": [
                {
                  "$type": "Comindware.Platform.Contracts.Models.Triggers.EventTrigger.PropertySetValue, Comindware.Platform.Contracts",
                  "SetValueKind": "Replace",
                  "PropertyPath": {
                    "$type": "Comindware.Platform.Contracts.GlobalAlias[], Comindware.Platform.Contracts",
                    "$values": [
                      {
                        "$type": "Comindware.Platform.Contracts.GlobalAlias, Comindware.Platform.Contracts",
                        "Type": "Attribute",
                        "Owner": "Etapyispolneniyazayavki",
                        "Alias": "Dataokonchaniya"
                      }
                    ]
                  },
                  "ValueExpression": "NOW()"
                },
                {
                  "$type": "Comindware.Platform.Contracts.Models.Triggers.EventTrigger.PropertySetValue, Comindware.Platform.Contracts",
                  "SetValueKind": "Replace",
                  "PropertyPath": {
                    "$type": "Comindware.Platform.Contracts.GlobalAlias[], Comindware.Platform.Contracts",
                    "$values": [
                      {
                        "$type": "Comindware.Platform.Contracts.GlobalAlias, Comindware.Platform.Contracts",
                        "Type": "Attribute",
                        "Owner": "Etapyispolneniyazayavki",
                        "Alias": "Tekuschiy"
                      }
                    ]
                  },
                  "ValueExpression": "false"
                }
              ]
            },
            "Uid": "3bfa972c40f142cfa1a24f12e09edf02",
            "Name": "В записи «Этапы исполнения заявки»",
            "GlobalAlias": {
              "$type": "Comindware.Platform.Contracts.GlobalAlias, Comindware.Platform.Contracts",
              "Type": "TriggerAction",
              "Alias": "3bfa972c40f142cfa1a24f12e09edf02"
            },
            "Scope": {
              "$type": "System.Nullable`1[[Comindware.Platform.Contracts.GlobalAlias, Comindware.Platform.Contracts]], mscorlib",
              "Type": "RecordTemplate",
              "Alias": "Etapyispolneniyazayavki"
            }
          }
        },
        "SubAction": {
          "$type": "Comindware.Platform.Contracts.Models.Triggers.EventTrigger.PropertySetValueAction, Comindware.Platform.Contracts",
          "Kind": "PropertySetValue",
          "SetValueProperties": {
            "$type": "Comindware.Platform.Contracts.Models.Triggers.EventTrigger.PropertySetValue[], Comindware.Platform.Contracts",
            "$values": [
              {
                "$type": "Comindware.Platform.Contracts.Models.Triggers.EventTrigger.PropertySetValue, Comindware.Platform.Contracts",
                "SetValueKind": "Replace",
                "PropertyPath": {
                  "$type": "Comindware.Platform.Contracts.GlobalAlias[], Comindware.Platform.Contracts",
                  "$values": [
                    {
                      "$type": "Comindware.Platform.Contracts.GlobalAlias, Comindware.Platform.Contracts",
                      "Type": "Attribute",
                      "Owner": "Etapyispolneniyazayavki",
                      "Alias": "Datanachala"
                    }
                  ]
                },
                "ValueExpression": "NOW()"
              },
              {
                "$type": "Comindware.Platform.Contracts.Models.Triggers.EventTrigger.PropertySetValue, Comindware.Platform.Contracts",
                "SetValueKind": "Replace",
                "PropertyPath": {
                  "$type": "Comindware.Platform.Contracts.GlobalAlias[], Comindware.Platform.Contracts",
                  "$values": [
                    {
                      "$type": "Comindware.Platform.Contracts.GlobalAlias, Comindware.Platform.Contracts",
                      "Type": "Attribute",
                      "Owner": "Etapyispolneniyazayavki",
                      "Alias": "Tekuschiy"
                    }
                  ]
                },
                "ValueExpression": "true"
              }
            ]
          },
          "Uid": "52529201cfad4bee9e8ecb9100ce32d9",
          "Name": "В записи «Этапы исполнения заявки»",
          "GlobalAlias": {
            "$type": "Comindware.Platform.Contracts.GlobalAlias, Comindware.Platform.Contracts",
            "Type": "TriggerAction",
            "Alias": "52529201cfad4bee9e8ecb9100ce32d9"
          },
          "Scope": {
            "$type": "System.Nullable`1[[Comindware.Platform.Contracts.GlobalAlias, Comindware.Platform.Contracts]], mscorlib",
            "Type": "RecordTemplate",
            "Alias": "Etapyispolneniyazayavki"
          }
        }
      }
    }
  }
}