{
  "$type": "Comindware.Platform.Contracts.Models.Triggers.EventTrigger.TriggerModel, Comindware.Platform.Contracts",
  "GlobalAlias": {
    "$type": "Comindware.Platform.Contracts.GlobalAlias, Comindware.Platform.Contracts",
    "Type": "Trigger",
    "Alias": "TokenEnters_userTask2_Process_Zaproskomandirovki_V2_1_cf5bda"
  },
  "Name": "Вход токена в элемент «Пользовательская задача 2» процесса «Запрос командировки»",
  "ExecutionContext": "ByInitiator",
  "Description": "Сценарий при входе токена в элемент «Пользовательская задача 2» <userTask2>, процесс «Запрос командировки» <Zaproskomandirovki>",
  "BehaviourState": "Active",
  "ActionsHead": {
    "$type": "Comindware.Platform.Contracts.Models.Triggers.EventTrigger.OnProcessActivityEntry, Comindware.Platform.Contracts",
    "Activity": {
      "$type": "System.Nullable`1[[Comindware.Platform.Contracts.GlobalAlias, Comindware.Platform.Contracts]], mscorlib",
      "Type": "GlobalActivity",
      "Owner": "Zaproskomandirovki",
      "Alias": "userTask2"
    },
    "Kind": "OnProcessActivityEntry",
    "Uid": "86899b51b933449dbcc0213999f5a5d5",
    "Name": "Токен вошел в элемент «Пользовательская задача 2»",
    "GlobalAlias": {
      "$type": "Comindware.Platform.Contracts.GlobalAlias, Comindware.Platform.Contracts",
      "Type": "TriggerEvent",
      "Alias": "86899b51b933449dbcc0213999f5a5d5"
    },
    "Description": "Токен вошел в элемент «Пользовательская задача 2» <userTask2>, процесс «Запрос командировки» <Zaproskomandirovki>",
    "Scope": {
      "$type": "System.Nullable`1[[Comindware.Platform.Contracts.GlobalAlias, Comindware.Platform.Contracts]], mscorlib",
      "Type": "ProcessTemplate",
      "Alias": "Zaproskomandirovki"
    },
    "NextAction": {
      "$type": "Comindware.Platform.Contracts.Models.Triggers.EventTrigger.ReferenceObjectChange, Comindware.Platform.Contracts",
      "TargetContainer": {
        "$type": "System.Nullable`1[[Comindware.Platform.Contracts.GlobalAlias, Comindware.Platform.Contracts]], mscorlib",
        "Type": "RecordTemplate",
        "Alias": "Vnutrenniezaprosy"
      },
      "ReferenceExpression": "$$BusinessObject",
      "Kind": "ReferenceObjectChange",
      "Uid": "06e3c6eaed7a4dea9bc61c737c7dcb42",
      "GlobalAlias": {
        "$type": "Comindware.Platform.Contracts.GlobalAlias, Comindware.Platform.Contracts",
        "Type": "TriggerAction",
        "Alias": "06e3c6eaed7a4dea9bc61c737c7dcb42"
      },
      "Scope": {
        "$type": "System.Nullable`1[[Comindware.Platform.Contracts.GlobalAlias, Comindware.Platform.Contracts]], mscorlib",
        "Type": "ProcessTemplate",
        "Alias": "Zaproskomandirovki"
      }
    }
  }
}