{
  "$type": "Comindware.Platform.Contracts.FormModel, Comindware.Platform.Contracts",
  "GlobalAlias": {
    "$type": "Comindware.Platform.Contracts.GlobalAlias, Comindware.Platform.Contracts",
    "Type": "Form",
    "Owner": "Uslugi",
    "Alias": "Zakazata5fc8b75ec194faea79077cb62e412e2"
  },
  "Type": "ModalForm",
  "IsDefault": false,
  "Root": {
    "$type": "Comindware.Platform.Contracts.VerticalLayoutModel, Comindware.Platform.Contracts",
    "Rows": {
      "$type": "System.Collections.Generic.List`1[[Comindware.Platform.Contracts.FormComponentModel, Comindware.Platform.Contracts]], mscorlib",
      "$values": [
        {
          "$type": "Comindware.Platform.Contracts.StaticContentModel, Comindware.Platform.Contracts",
          "Content": {
            "$type": "Comindware.Platform.Contracts.LocalizedTextModel, Comindware.Platform.Contracts",
            "En": "<p>Вы уверены, что хотите заказать услугу?</p> <p>&nbsp;</p> <p>&nbsp;</p> <p>Прикрепите договор:</p>\n",
            "De": "<p>Вы уверены, что хотите заказать услугу?</p> <p>&nbsp;</p> <p>&nbsp;</p> <p>Прикрепите договор:</p>\n",
            "Ru": "<p>Вы уверены, что хотите заказать услугу?</p> <p>&nbsp;</p> <p>&nbsp;</p> <p>Прикрепите договор:</p>\n"
          },
          "GlobalAlias": {
            "$type": "Comindware.Platform.Contracts.GlobalAlias, Comindware.Platform.Contracts",
            "Type": "FormComponent",
            "Alias": "StaticContentComponent"
          },
          "AccessType": "Undefined",
          "Width": 0,
          "Type": "StaticContent"
        },
        {
          "$type": "Comindware.Platform.Contracts.FieldComponentModel, Comindware.Platform.Contracts",
          "Label": {
            "$type": "Comindware.Platform.Contracts.LabelModel, Comindware.Platform.Contracts",
            "Hidden": false,
            "Alignment": "Top",
            "Text": {
              "$type": "Comindware.Platform.Contracts.LocalizedTextModel, Comindware.Platform.Contracts",
              "En": "Договор",
              "De": "Договор",
              "Ru": "Договор"
            }
          },
          "FieldType": "Document",
          "Placeholder": {
            "$type": "Comindware.Platform.Contracts.LocalizedTextModel, Comindware.Platform.Contracts"
          },
          "HelpText": {
            "$type": "Comindware.Platform.Contracts.LocalizedTextModel, Comindware.Platform.Contracts"
          },
          "PropertyPath": {
            "$type": "Comindware.Platform.Contracts.GlobalAlias[], Comindware.Platform.Contracts",
            "$values": [
              {
                "$type": "Comindware.Platform.Contracts.GlobalAlias, Comindware.Platform.Contracts",
                "Type": "MessageTemplateProperty",
                "Owner": "Zakazatddae",
                "Alias": "Doc"
              }
            ]
          },
          "EditorType": "Radio",
          "CreationType": "None",
          "RemovalType": "None",
          "EditType": "None",
          "ChildPropertyAlias": {
            "$type": "Comindware.Platform.Contracts.GlobalAlias, Comindware.Platform.Contracts",
            "Type": "Undefined"
          },
          "OrderPropertyAlias": {
            "$type": "Comindware.Platform.Contracts.GlobalAlias, Comindware.Platform.Contracts",
            "Type": "Undefined"
          },
          "NumberPropertyAlias": {
            "$type": "Comindware.Platform.Contracts.GlobalAlias, Comindware.Platform.Contracts",
            "Type": "Undefined"
          },
          "PrecedentPropertyAlias": {
            "$type": "Comindware.Platform.Contracts.GlobalAlias, Comindware.Platform.Contracts",
            "Type": "Undefined"
          },
          "SortingDirection": "Asc",
          "MaxCount": 0,
          "PopupFormAlias": {
            "$type": "Comindware.Platform.Contracts.GlobalAlias, Comindware.Platform.Contracts",
            "Type": "Undefined"
          },
          "DisplayFormat": "ShowAsPicture",
          "GlobalAlias": {
            "$type": "Comindware.Platform.Contracts.GlobalAlias, Comindware.Platform.Contracts",
            "Type": "FormComponent",
            "Alias": "Doc"
          },
          "AccessType": "Editable",
          "Width": 0,
          "Type": "FieldComponent"
        }
      ]
    },
    "GlobalAlias": {
      "$type": "Comindware.Platform.Contracts.GlobalAlias, Comindware.Platform.Contracts",
      "Type": "FormComponent",
      "Alias": "root"
    },
    "AccessType": "Undefined",
    "Width": 0,
    "Type": "VerticalLayout"
  },
  "Name": "formName4632",
  "Origination": "Undefined"
}