{
  "$type": "Comindware.Platform.Contracts.TaskActivityModel, Comindware.Platform.Contracts",
  "GlobalAlias": {
    "$type": "Comindware.Platform.Contracts.GlobalAlias, Comindware.Platform.Contracts",
    "Type": "ClientActivity",
    "Owner": "Oformleniezayavki",
    "Alias": "userTask3"
  },
  "Kind": "User",
  "UserDefinition": {
    "$type": "Comindware.Platform.Contracts.UserTaskDefinitionModel, Comindware.Platform.Contracts",
    "Modifiers": {
      "$type": "Comindware.Platform.Contracts.ModificationRuleModel[], Comindware.Platform.Contracts",
      "$values": [
        {
          "$type": "Comindware.Platform.Contracts.ModificationRuleModel, Comindware.Platform.Contracts",
          "Action": {
            "$type": "Comindware.Platform.Contracts.ModificationActionModel, Comindware.Platform.Contracts",
            "PropertyPath": {
              "$type": "Comindware.Platform.Contracts.GlobalAlias[], Comindware.Platform.Contracts",
              "$values": [
                {
                  "$type": "Comindware.Platform.Contracts.GlobalAlias, Comindware.Platform.Contracts",
                  "Type": "Attribute",
                  "Owner": "_Case",
                  "Alias": "description"
                }
              ]
            },
            "PropertyAction": "Replace"
          },
          "Type": "Modification",
          "Definition": {
            "$type": "Comindware.Platform.Contracts.ValuesRuleDefinitionModel, Comindware.Platform.Contracts",
            "Type": "Values"
          }
        },
        {
          "$type": "Comindware.Platform.Contracts.ModificationRuleModel, Comindware.Platform.Contracts",
          "Action": {
            "$type": "Comindware.Platform.Contracts.ModificationActionModel, Comindware.Platform.Contracts",
            "PropertyPath": {
              "$type": "Comindware.Platform.Contracts.GlobalAlias[], Comindware.Platform.Contracts",
              "$values": [
                {
                  "$type": "Comindware.Platform.Contracts.GlobalAlias, Comindware.Platform.Contracts",
                  "Type": "Attribute",
                  "Alias": "dueDate"
                }
              ]
            },
            "PropertyAction": "Replace"
          },
          "Type": "Modification",
          "Definition": {
            "$type": "Comindware.Platform.Contracts.ValuesRuleDefinitionModel, Comindware.Platform.Contracts",
            "Type": "Values"
          }
        },
        {
          "$type": "Comindware.Platform.Contracts.ModificationRuleModel, Comindware.Platform.Contracts",
          "Action": {
            "$type": "Comindware.Platform.Contracts.ModificationActionModel, Comindware.Platform.Contracts",
            "PropertyPath": {
              "$type": "Comindware.Platform.Contracts.GlobalAlias[], Comindware.Platform.Contracts",
              "$values": [
                {
                  "$type": "Comindware.Platform.Contracts.GlobalAlias, Comindware.Platform.Contracts",
                  "Type": "Attribute",
                  "Owner": "_UserTask",
                  "Alias": "isReassignProhibited"
                }
              ]
            },
            "PropertyAction": "Replace"
          },
          "Type": "Modification",
          "Definition": {
            "$type": "Comindware.Platform.Contracts.ValuesRuleDefinitionModel, Comindware.Platform.Contracts",
            "Values": {
              "$type": "System.Object[], mscorlib",
              "$values": [
                false
              ]
            },
            "Type": "Values"
          }
        },
        {
          "$type": "Comindware.Platform.Contracts.MemberValuesModificationRuleModel, Comindware.Platform.Contracts",
          "Action": {
            "$type": "Comindware.Platform.Contracts.ModificationActionModel, Comindware.Platform.Contracts",
            "PropertyPath": {
              "$type": "Comindware.Platform.Contracts.GlobalAlias[], Comindware.Platform.Contracts",
              "$values": [
                {
                  "$type": "Comindware.Platform.Contracts.GlobalAlias, Comindware.Platform.Contracts",
                  "Type": "Attribute",
                  "Alias": "possibleAssignee"
                }
              ]
            },
            "PropertyAction": "Replace"
          },
          "Type": "Modification",
          "Definition": {
            "$type": "Comindware.Platform.Contracts.ValuesRuleDefinitionModel, Comindware.Platform.Contracts",
            "Values": {
              "$type": "System.Object[], mscorlib",
              "$values": [
                {
                  "$type": "Comindware.Platform.Contracts.GlobalAlias, Comindware.Platform.Contracts",
                  "Type": "RoleConfiguration",
                  "Alias": "Sotrudnik"
                }
              ]
            },
            "Type": "Values"
          }
        },
        {
          "$type": "Comindware.Platform.Contracts.ModificationRuleModel, Comindware.Platform.Contracts",
          "Action": {
            "$type": "Comindware.Platform.Contracts.ModificationActionModel, Comindware.Platform.Contracts",
            "PropertyPath": {
              "$type": "Comindware.Platform.Contracts.GlobalAlias[], Comindware.Platform.Contracts",
              "$values": [
                {
                  "$type": "Comindware.Platform.Contracts.GlobalAlias, Comindware.Platform.Contracts",
                  "Type": "Attribute",
                  "Alias": "title"
                }
              ]
            },
            "PropertyAction": "Replace"
          },
          "Type": "Modification",
          "Definition": {
            "$type": "Comindware.Platform.Contracts.ValuesRuleDefinitionModel, Comindware.Platform.Contracts",
            "Values": {
              "$type": "System.Object[], mscorlib",
              "$values": [
                "-Пользовательская задача 1"
              ]
            },
            "Type": "Values"
          }
        }
      ]
    }
  },
  "FormAlias": {
    "$type": "Comindware.Platform.Contracts.GlobalAlias, Comindware.Platform.Contracts",
    "Type": "ProcessForm",
    "Owner": "Oformleniezayavki",
    "Alias": "form0a045e7daafd4d4c9432e6c1d8da6346"
  },
  "BehaviourState": "Active",
  "Title": "Отгрузка товара",
  "IsTitleSet": false,
  "Position": {
    "$type": "Comindware.Platform.Contracts.VectorModel, Comindware.Platform.Contracts",
    "X": 1320.0,
    "Y": 865.0
  },
  "Size": {
    "$type": "Comindware.Platform.Contracts.DimensionsModel, Comindware.Platform.Contracts",
    "Width": 120.0,
    "Height": 70.0
  },
  "Owner": {
    "$type": "Comindware.Platform.Contracts.GlobalAlias, Comindware.Platform.Contracts",
    "Type": "ClientActivity",
    "Owner": "Oformleniezayavki",
    "Alias": "lane3"
  },
  "OwnerEmbeddedProcessActivityAlias": {
    "$type": "Comindware.Platform.Contracts.GlobalAlias, Comindware.Platform.Contracts",
    "Type": "Undefined"
  },
  "MountedOnAlias": {
    "$type": "Comindware.Platform.Contracts.GlobalAlias, Comindware.Platform.Contracts",
    "Type": "Undefined"
  },
  "Type": "Task",
  "OnEnterTrigger": {
    "$type": "Comindware.Platform.Contracts.GlobalAlias, Comindware.Platform.Contracts",
    "Type": "Trigger",
    "Alias": "TokenEnters_userTask3_Process_Oformleniezayavki_V22_1_19496c"
  },
  "OnExitTrigger": {
    "$type": "Comindware.Platform.Contracts.GlobalAlias, Comindware.Platform.Contracts",
    "Type": "Trigger",
    "Alias": "TokenLeaves_userTask3_Process_Oformleniezayavki_V22_1_df9674"
  }
}