{
  "$type": "Comindware.Platform.Contracts.Desktop.TextFieldWidgetConfigModel, Comindware.Platform.Contracts",
  "GlobalAlias": {
    "$type": "Comindware.Platform.Contracts.GlobalAlias, Comindware.Platform.Contracts",
    "Type": "DesktopWidgetConfig",
    "Owner": "CRM",
    "Alias": "WidgetConfig_fde7d960-7867-4434-af41-2283bae8437c"
  },
  "FieldType": "Text",
  "EditorType": "Simple",
  "TextHeight": 0,
  "TextHeightAuto": false,
  "MaxLength": 0,
  "Label": {
    "$type": "Comindware.Platform.Contracts.Desktop.Label, Comindware.Platform.Contracts",
    "Hidden": false,
    "Text": {
      "$type": "Comindware.Platform.Contracts.Desktop.LocalizedText, Comindware.Platform.Contracts",
      "En": "description",
      "De": "description",
      "Ru": "description"
    },
    "Alignment": "Undefined"
  },
  "Type": "FieldComponent",
  "Name": "description",
  "TemplateId": {
    "$type": "Comindware.Platform.Contracts.GlobalAlias, Comindware.Platform.Contracts",
    "Type": "Undefined"
  },
  "Order": 3,
  "PropertyPath": {
    "$type": "Comindware.Platform.Contracts.GlobalAlias[], Comindware.Platform.Contracts",
    "$values": []
  }
}