{
  "$type": "Comindware.Platform.Contracts.Desktop.IconWidgetConfigModel, Comindware.Platform.Contracts",
  "GlobalAlias": {
    "$type": "Comindware.Platform.Contracts.GlobalAlias, Comindware.Platform.Contracts",
    "Type": "DesktopWidgetConfig",
    "Owner": "CRM",
    "Alias": "WidgetConfig_869263b3-36dd-46de-a384-bfb2f82a15ba"
  },
  "Type": "Icon",
  "IconType": "Undefined",
  "IconClass": "plane-departure",
  "Name": "Значок",
  "TemplateId": {
    "$type": "Comindware.Platform.Contracts.GlobalAlias, Comindware.Platform.Contracts",
    "Type": "Undefined"
  },
  "Order": 1,
  "PropertyPath": {
    "$type": "Comindware.Platform.Contracts.GlobalAlias[], Comindware.Platform.Contracts",
    "$values": []
  }
}