{
  "$type": "Comindware.Platform.Contracts.Desktop.ImageFieldWidgetConfigModel, Comindware.Platform.Contracts",
  "GlobalAlias": {
    "$type": "Comindware.Platform.Contracts.GlobalAlias, Comindware.Platform.Contracts",
    "Type": "DesktopWidgetConfig",
    "Owner": "CRM",
    "Alias": "WidgetConfig_05ad61a5-58d1-43c5-b42e-e4e9ee31901d"
  },
  "FieldType": "Image",
  "Label": {
    "$type": "Comindware.Platform.Contracts.Desktop.Label, Comindware.Platform.Contracts",
    "Hidden": false,
    "Text": {
      "$type": "Comindware.Platform.Contracts.Desktop.LocalizedText, Comindware.Platform.Contracts",
      "En": "Picture",
      "De": "Picture",
      "Ru": "Picture"
    },
    "Alignment": "Undefined"
  },
  "Type": "FieldComponent",
  "Name": "Picture",
  "TemplateId": {
    "$type": "Comindware.Platform.Contracts.GlobalAlias, Comindware.Platform.Contracts",
    "Type": "Undefined"
  },
  "Order": 1,
  "PropertyPath": {
    "$type": "Comindware.Platform.Contracts.GlobalAlias[], Comindware.Platform.Contracts",
    "$values": [
      {
        "$type": "Comindware.Platform.Contracts.GlobalAlias, Comindware.Platform.Contracts",
        "Type": "Attribute",
        "Owner": "Uslugi",
        "Alias": "Picture"
      }
    ]
  }
}