{
  "$type": "Comindware.Platform.Contracts.Desktop.TextFieldWidgetConfigModel, Comindware.Platform.Contracts",
  "GlobalAlias": {
    "$type": "Comindware.Platform.Contracts.GlobalAlias, Comindware.Platform.Contracts",
    "Type": "DesktopWidgetConfig",
    "Owner": "CRM",
    "Alias": "WidgetConfig_9999ecf9-b70d-4c76-a953-d488f3f5b756"
  },
  "FieldType": "Text",
  "EditorType": "Simple",
  "TextHeight": 0,
  "TextHeightAuto": false,
  "MaxLength": 0,
  "Label": {
    "$type": "Comindware.Platform.Contracts.Desktop.Label, Comindware.Platform.Contracts",
    "Hidden": false,
    "Text": {
      "$type": "Comindware.Platform.Contracts.Desktop.LocalizedText, Comindware.Platform.Contracts",
      "En": "Наименование",
      "De": "Наименование",
      "Ru": "Наименование"
    },
    "Alignment": "Undefined"
  },
  "Type": "FieldComponent",
  "Name": "Наименование",
  "TemplateId": {
    "$type": "Comindware.Platform.Contracts.GlobalAlias, Comindware.Platform.Contracts",
    "Type": "Undefined"
  },
  "Order": 2,
  "PropertyPath": {
    "$type": "Comindware.Platform.Contracts.GlobalAlias[], Comindware.Platform.Contracts",
    "$values": [
      {
        "$type": "Comindware.Platform.Contracts.GlobalAlias, Comindware.Platform.Contracts",
        "Type": "Attribute",
        "Owner": "Uslugi",
        "Alias": "Naimenovanie"
      }
    ]
  }
}