{
  "$type": "Comindware.Platform.Contracts.AttributeModel, Comindware.Platform.Contracts",
  "GlobalAlias": {
    "$type": "Comindware.Platform.Contracts.GlobalAlias, Comindware.Platform.Contracts",
    "Type": "Attribute",
    "Owner": "Vnutrenniezaprosy",
    "Alias": "Komu"
  },
  "Type": "String",
  "Format": "PlainText",
  "Name": "Кому",
  "IsSystem": false,
  "IsDisabled": false,
  "IsUnique": false,
  "IsIndexed": false,
  "IsTracked": false,
  "IsMultiValue": false,
  "IsTitle": true,
  "IsMandatory": false,
  "IsOwnership": false,
  "IsCalculated": true,
  "Expression": "from a in db->_Account where a->cmw.account.mbox == \"admin@cmw.com\" select a->fullName",
  "InstanceGlobalAlias": {
    "$type": "Comindware.Platform.Contracts.GlobalAlias, Comindware.Platform.Contracts",
    "Type": "Undefined"
  },
  "ImageColorType": "Original",
  "ImagePreserveAspectRatio": false
}