{
  "$type": "Comindware.Platform.Contracts.FormModel, Comindware.Platform.Contracts",
  "GlobalAlias": {
    "$type": "Comindware.Platform.Contracts.GlobalAlias, Comindware.Platform.Contracts",
    "Type": "Form",
    "Owner": "Vidvnutrenneyzayavki",
    "Alias": "Otkazat7bf26aa56e1c4f92b214f8b221ad3710"
  },
  "Type": "ModalForm",
  "IsDefault": false,
  "Root": {
    "$type": "Comindware.Platform.Contracts.VerticalLayoutModel, Comindware.Platform.Contracts",
    "Rows": {
      "$type": "System.Collections.Generic.List`1[[Comindware.Platform.Contracts.FormComponentModel, Comindware.Platform.Contracts]], mscorlib",
      "$values": [
        {
          "$type": "Comindware.Platform.Contracts.StaticContentModel, Comindware.Platform.Contracts",
          "Content": {
            "$type": "Comindware.Platform.Contracts.LocalizedTextModel, Comindware.Platform.Contracts",
            "En": "<p>После подтверждения Отказа, сотрудник автоматически получит уведомление о негативном решении по его заявлению на отпуск.</p> <p>&nbsp;</p> <p>Отказать?</p>\n",
            "De": "<p>После подтверждения Отказа, сотрудник автоматически получит уведомление о негативном решении по его заявлению на отпуск.</p> <p>&nbsp;</p> <p>Отказать?</p>\n",
            "Ru": "<p>После подтверждения Отказа, сотрудник автоматически получит уведомление о негативном решении по его заявлению на отпуск.</p> <p>&nbsp;</p> <p>Отказать?</p>\n"
          },
          "GlobalAlias": {
            "$type": "Comindware.Platform.Contracts.GlobalAlias, Comindware.Platform.Contracts",
            "Type": "FormComponent",
            "Alias": "StaticContentComponent"
          },
          "AccessType": "Undefined",
          "Width": 0,
          "Type": "StaticContent"
        }
      ]
    },
    "GlobalAlias": {
      "$type": "Comindware.Platform.Contracts.GlobalAlias, Comindware.Platform.Contracts",
      "Type": "FormComponent",
      "Alias": "root"
    },
    "AccessType": "Undefined",
    "Width": 0,
    "Type": "VerticalLayout"
  },
  "Name": "formName13572",
  "Origination": "Undefined"
}